dump.vcd
$date
Tue Oct 24 12:21:14 2023
$end
$version
Riviera-PRO Version 2022.04.117.8517
$end
$timescale
1 ns
$end

$scope module single_port_ram_tb $end
$var wire 8 ! q [7:0] $end
$var reg 8 " data [7:0] $end
$var reg 6 # addr [5:0] $end
$var reg 1 $ we $end
$var reg 1 % clk $end
$upscope $end

$enddefinitions $end
$dumpvars
bx !
b1 "
b0 #
1$
1%
$end
#5
0%
#10
b10 "
b1 #
1%
#15
0%
#20
b11 "
b10 #
1%
#25
0%
#30
b0 #
0$
1%
b1 !
#35
0%
#40
b1 #
1%
b10 !
#45
0%
#50
b10 #
1%
b11 !
#55
0%
#60
b100 "
b1 #
1$
1%
#65
0%
#70
0$
1%
b100 !
#75
0%
#80
b11 #
1%
bx !
